^sep()
Lock, loginctl lock-session, system-lock-screen
Log Out, xfce4-session-logout, system-log-out
#Suspend, loginctl suspend, system-suspend
#Hibernate, loginctl hibernate, system-hibernate
#Hybrid Sleep, loginctl hybrid-sleep, system-hibernate
Reboot, loginctl reboot, system-reboot
Poweroff, loginctl poweroff, system-shutdown
